/Users/yogieyabie/Documents/WORK/exampletask/src/main/java/com/example/question/entities/Employee.java
/Users/yogieyabie/Documents/WORK/exampletask/src/main/java/com/example/question/util/Question1Task.java
/Users/yogieyabie/Documents/WORK/exampletask/src/main/java/com/example/question/entities/Affiliate.java
/Users/yogieyabie/Documents/WORK/exampletask/src/main/java/com/example/question/entities/Retail.java
/Users/yogieyabie/Documents/WORK/exampletask/src/main/java/com/example/question/entities/Customer.java
/Users/yogieyabie/Documents/WORK/exampletask/src/main/java/com/example/question/App.java
/Users/yogieyabie/Documents/WORK/exampletask/src/main/java/com/example/question/entities/Product.java
/Users/yogieyabie/Documents/WORK/exampletask/src/main/java/com/example/question/util/Question3Task.java
/Users/yogieyabie/Documents/WORK/exampletask/src/main/java/com/example/question/entities/StoreLoad.java
/Users/yogieyabie/Documents/WORK/exampletask/src/main/java/com/example/question/entities/Cart.java
